%YAML 1.1
%TAG !u! tag:unity3d.com,2011:
--- !u!114 &11400000
MonoBehaviour:
  m_ObjectHideFlags: 0
  m_CorrespondingSourceObject: {fileID: 0}
  m_PrefabInstance: {fileID: 0}
  m_PrefabAsset: {fileID: 0}
  m_GameObject: {fileID: 0}
  m_Enabled: 1
  m_EditorHideFlags: 0
  m_Script: {fileID: 11500000, guid: 58e8f05c0d2aacf4eb41992cb0543406, type: 3}
  m_Name: 2RW
  m_EditorClassIdentifier: 
  Waves:
  - Delay: 20
    InfinityDelay: 0
    Description: 'Voador(x3)

      Ninja Fantasma (x2)'
    Enemy:
    - Prefab: {fileID: 8898600018023004491, guid: da6cf2da9dc526a4b89b3998d016c2d7,
        type: 3}
      Quantity: 3
      Delay: 1
    - Prefab: {fileID: 4438224351332088367, guid: ea8c5df9a580c0740a54b606d312debd,
        type: 3}
      Quantity: 3
      Delay: 4
  - Delay: 50
    InfinityDelay: 0
    Description: 'Ogro(x5)

      Voador(x5)

      Ninja Fantasma (x5)'
    Enemy:
    - Prefab: {fileID: 8848953425376834553, guid: b2c56e20c4a3db84d8db4affc411aab5,
        type: 3}
      Quantity: 5
      Delay: 1
    - Prefab: {fileID: 4438224351332088367, guid: ea8c5df9a580c0740a54b606d312debd,
        type: 3}
      Quantity: 5
      Delay: 4
    - Prefab: {fileID: 4438224351332088367, guid: ea8c5df9a580c0740a54b606d312debd,
        type: 3}
      Quantity: 5
      Delay: 4
  - Delay: 70
    InfinityDelay: 0
    Description: 'Ogro(x5)

      Voador(x5)

      Ninja Fantasma (x10)'
    Enemy:
    - Prefab: {fileID: 8848953425376834553, guid: b2c56e20c4a3db84d8db4affc411aab5,
        type: 3}
      Quantity: 5
      Delay: 1
    - Prefab: {fileID: 4438224351332088367, guid: ea8c5df9a580c0740a54b606d312debd,
        type: 3}
      Quantity: 5
      Delay: 4
    - Prefab: {fileID: 4438224351332088367, guid: ea8c5df9a580c0740a54b606d312debd,
        type: 3}
      Quantity: 5
      Delay: 4
