%YAML 1.1
%TAG !u! tag:unity3d.com,2011:
--- !u!74 &7400000
AnimationClip:
  m_ObjectHideFlags: 0
  m_CorrespondingSourceObject: {fileID: 0}
  m_PrefabInstance: {fileID: 0}
  m_PrefabAsset: {fileID: 0}
  m_Name: SpawnPoint
  serializedVersion: 6
  m_Legacy: 0
  m_Compressed: 0
  m_UseHighQualityCurve: 1
  m_RotationCurves: []
  m_CompressedRotationCurves: []
  m_EulerCurves: []
  m_PositionCurves: []
  m_ScaleCurves: []
  m_FloatCurves: []
  m_PPtrCurves:
  - curve:
    - time: 0
      value: {fileID: 21300000, guid: 3d82baab0b721c5469d853e385f52ce0, type: 3}
    - time: 0.11666667
      value: {fileID: 21300000, guid: 5b9048a6333c45045b02c5127fb73993, type: 3}
    - time: 0.21666667
      value: {fileID: 21300000, guid: 2fc5e67b450ea444fa9a7744dfb4e355, type: 3}
    - time: 0.33333334
      value: {fileID: 21300000, guid: 590edab30e57cbb4285fadc0faf32b15, type: 3}
    - time: 0.45
      value: {fileID: 21300000, guid: 56776dc6b9d44dd458763e3b113fad31, type: 3}
    - time: 0.55
      value: {fileID: 21300000, guid: 14c59f4237c254d4d8ee24d46a8864f4, type: 3}
    - time: 0.6666667
      value: {fileID: 21300000, guid: dbe2e2428ec29ea4aab8999c96d19de0, type: 3}
    - time: 0.78333336
      value: {fileID: 21300000, guid: 6b5d1ab428e2b9f40865d4097b577c24, type: 3}
    - time: 0.8833333
      value: {fileID: 21300000, guid: b8dfb806baca33d40ad5ab498e93a35a, type: 3}
    - time: 1
      value: {fileID: 21300000, guid: bde6852a5b07a1d4dbb3da344e5c902d, type: 3}
    attribute: m_Sprite
    path: 
    classID: 212
    script: {fileID: 0}
  m_SampleRate: 60
  m_WrapMode: 0
  m_Bounds:
    m_Center: {x: 0, y: 0, z: 0}
    m_Extent: {x: 0, y: 0, z: 0}
  m_ClipBindingConstant:
    genericBindings:
    - serializedVersion: 2
      path: 0
      attribute: 0
      script: {fileID: 0}
      typeID: 212
      customType: 23
      isPPtrCurve: 1
    pptrCurveMapping:
    - {fileID: 21300000, guid: 3d82baab0b721c5469d853e385f52ce0, type: 3}
    - {fileID: 21300000, guid: 5b9048a6333c45045b02c5127fb73993, type: 3}
    - {fileID: 21300000, guid: 2fc5e67b450ea444fa9a7744dfb4e355, type: 3}
    - {fileID: 21300000, guid: 590edab30e57cbb4285fadc0faf32b15, type: 3}
    - {fileID: 21300000, guid: 56776dc6b9d44dd458763e3b113fad31, type: 3}
    - {fileID: 21300000, guid: 14c59f4237c254d4d8ee24d46a8864f4, type: 3}
    - {fileID: 21300000, guid: dbe2e2428ec29ea4aab8999c96d19de0, type: 3}
    - {fileID: 21300000, guid: 6b5d1ab428e2b9f40865d4097b577c24, type: 3}
    - {fileID: 21300000, guid: b8dfb806baca33d40ad5ab498e93a35a, type: 3}
    - {fileID: 21300000, guid: bde6852a5b07a1d4dbb3da344e5c902d, type: 3}
  m_AnimationClipSettings:
    serializedVersion: 2
    m_AdditiveReferencePoseClip: {fileID: 0}
    m_AdditiveReferencePoseTime: 0
    m_StartTime: 0
    m_StopTime: 1.0166667
    m_OrientationOffsetY: 0
    m_Level: 0
    m_CycleOffset: 0
    m_HasAdditiveReferencePose: 0
    m_LoopTime: 1
    m_LoopBlend: 0
    m_LoopBlendOrientation: 0
    m_LoopBlendPositionY: 0
    m_LoopBlendPositionXZ: 0
    m_KeepOriginalOrientation: 0
    m_KeepOriginalPositionY: 1
    m_KeepOriginalPositionXZ: 0
    m_HeightFromFeet: 0
    m_Mirror: 0
  m_EditorCurves: []
  m_EulerEditorCurves: []
  m_HasGenericRootTransform: 0
  m_HasMotionFloatCurves: 0
  m_Events:
  - time: 0.55
    functionName: OnAnimationStarted
    data: 
    objectReferenceParameter: {fileID: 0}
    floatParameter: 0
    intParameter: 0
    messageOptions: 0
