%YAML 1.1
%TAG !u! tag:unity3d.com,2011:
--- !u!74 &7400000
AnimationClip:
  m_ObjectHideFlags: 0
  m_CorrespondingSourceObject: {fileID: 0}
  m_PrefabInstance: {fileID: 0}
  m_PrefabAsset: {fileID: 0}
  m_Name: Cure
  serializedVersion: 6
  m_Legacy: 0
  m_Compressed: 0
  m_UseHighQualityCurve: 1
  m_RotationCurves: []
  m_CompressedRotationCurves: []
  m_EulerCurves: []
  m_PositionCurves: []
  m_ScaleCurves: []
  m_FloatCurves:
  - curve:
      serializedVersion: 2
      m_Curve:
      - serializedVersion: 3
        time: 0
        value: 0
        inSlope: Infinity
        outSlope: Infinity
        tangentMode: 103
        weightedMode: 0
        inWeight: 0
        outWeight: 0
      - serializedVersion: 3
        time: 0.25
        value: 1
        inSlope: Infinity
        outSlope: Infinity
        tangentMode: 103
        weightedMode: 0
        inWeight: 0
        outWeight: 0
      - serializedVersion: 3
        time: 1.75
        value: 0
        inSlope: Infinity
        outSlope: Infinity
        tangentMode: 103
        weightedMode: 0
        inWeight: 0
        outWeight: 0
      m_PreInfinity: 2
      m_PostInfinity: 2
      m_RotationOrder: 4
    attribute: m_IsActive
    path: CureSparkle
    classID: 1
    script: {fileID: 0}
  m_PPtrCurves:
  - curve:
    - time: 0
      value: {fileID: 21300000, guid: 0e9655767b627b4438aa6fe58eae6d34, type: 3}
    - time: 0.083333336
      value: {fileID: 21300000, guid: ea7df50acd692964885086ba747d5b59, type: 3}
    - time: 0.16666667
      value: {fileID: 21300000, guid: eb60a5305ecb22c429bb1f7366b959ea, type: 3}
    - time: 0.25
      value: {fileID: 21300000, guid: 9bcda3e0c0143fd48a6e3e85750d165b, type: 3}
    - time: 1.8
      value: {fileID: 21300000, guid: a6651dd294837c54196ec0d74088fc16, type: 3}
    - time: 1.9
      value: {fileID: 21300000, guid: 70cf3db2e7f753044b03be694ed1e494, type: 3}
    - time: 2
      value: {fileID: 21300000, guid: d534a7d103b61674abf603ac50eb5826, type: 3}
    - time: 2.1166666
      value: {fileID: 21300000, guid: 41a14c22f2f74e9499a994b296bc1a99, type: 3}
    - time: 2.2166667
      value: {fileID: 21300000, guid: 5f282e1ad7ab1b0468c75190a27eb97e, type: 3}
    - time: 2.3166666
      value: {fileID: 21300000, guid: 1227175501ea1a34797b43203ef4eee7, type: 3}
    attribute: m_Sprite
    path: 
    classID: 212
    script: {fileID: 0}
  m_SampleRate: 60
  m_WrapMode: 0
  m_Bounds:
    m_Center: {x: 0, y: 0, z: 0}
    m_Extent: {x: 0, y: 0, z: 0}
  m_ClipBindingConstant:
    genericBindings:
    - serializedVersion: 2
      path: 3195705582
      attribute: 2086281974
      script: {fileID: 0}
      typeID: 1
      customType: 0
      isPPtrCurve: 0
    - serializedVersion: 2
      path: 0
      attribute: 0
      script: {fileID: 0}
      typeID: 212
      customType: 23
      isPPtrCurve: 1
    pptrCurveMapping:
    - {fileID: 21300000, guid: 0e9655767b627b4438aa6fe58eae6d34, type: 3}
    - {fileID: 21300000, guid: ea7df50acd692964885086ba747d5b59, type: 3}
    - {fileID: 21300000, guid: eb60a5305ecb22c429bb1f7366b959ea, type: 3}
    - {fileID: 21300000, guid: 9bcda3e0c0143fd48a6e3e85750d165b, type: 3}
    - {fileID: 21300000, guid: a6651dd294837c54196ec0d74088fc16, type: 3}
    - {fileID: 21300000, guid: 70cf3db2e7f753044b03be694ed1e494, type: 3}
    - {fileID: 21300000, guid: d534a7d103b61674abf603ac50eb5826, type: 3}
    - {fileID: 21300000, guid: 41a14c22f2f74e9499a994b296bc1a99, type: 3}
    - {fileID: 21300000, guid: 5f282e1ad7ab1b0468c75190a27eb97e, type: 3}
    - {fileID: 21300000, guid: 1227175501ea1a34797b43203ef4eee7, type: 3}
  m_AnimationClipSettings:
    serializedVersion: 2
    m_AdditiveReferencePoseClip: {fileID: 0}
    m_AdditiveReferencePoseTime: 0
    m_StartTime: 0
    m_StopTime: 2.3333333
    m_OrientationOffsetY: 0
    m_Level: 0
    m_CycleOffset: 0
    m_HasAdditiveReferencePose: 0
    m_LoopTime: 1
    m_LoopBlend: 0
    m_LoopBlendOrientation: 0
    m_LoopBlendPositionY: 0
    m_LoopBlendPositionXZ: 0
    m_KeepOriginalOrientation: 0
    m_KeepOriginalPositionY: 1
    m_KeepOriginalPositionXZ: 0
    m_HeightFromFeet: 0
    m_Mirror: 0
  m_EditorCurves:
  - curve:
      serializedVersion: 2
      m_Curve:
      - serializedVersion: 3
        time: 0
        value: 0
        inSlope: Infinity
        outSlope: Infinity
        tangentMode: 103
        weightedMode: 0
        inWeight: 0
        outWeight: 0
      - serializedVersion: 3
        time: 0.25
        value: 1
        inSlope: Infinity
        outSlope: Infinity
        tangentMode: 103
        weightedMode: 0
        inWeight: 0
        outWeight: 0
      - serializedVersion: 3
        time: 1.75
        value: 0
        inSlope: Infinity
        outSlope: Infinity
        tangentMode: 103
        weightedMode: 0
        inWeight: 0
        outWeight: 0
      m_PreInfinity: 2
      m_PostInfinity: 2
      m_RotationOrder: 4
    attribute: m_IsActive
    path: CureSparkle
    classID: 1
    script: {fileID: 0}
  m_EulerEditorCurves: []
  m_HasGenericRootTransform: 0
  m_HasMotionFloatCurves: 0
  m_Events:
  - time: 0.25
    functionName: OnAnimationStarted
    data: 
    objectReferenceParameter: {fileID: 0}
    floatParameter: 0
    intParameter: 0
    messageOptions: 0
