%YAML 1.1
%TAG !u! tag:unity3d.com,2011:
--- !u!114 &11400000
MonoBehaviour:
  m_ObjectHideFlags: 0
  m_CorrespondingSourceObject: {fileID: 0}
  m_PrefabInstance: {fileID: 0}
  m_PrefabAsset: {fileID: 0}
  m_GameObject: {fileID: 0}
  m_Enabled: 1
  m_EditorHideFlags: 0
  m_Script: {fileID: 11500000, guid: e809d1961116c2447addcbfee3350e94, type: 3}
  m_Name: SoldierTower
  m_EditorClassIdentifier: 
  TypeOfTower: 1
  Prefab: {fileID: 3690527461863634973, guid: 92bf4098d79d67b4e944d57b36066d20, type: 3}
  GhostPrefab: {fileID: 3690527461863634973, guid: 7f4c60111a0fa2c46ae93347d34c40dc,
    type: 3}
  Icon: {fileID: 21300000, guid: 74cd79a3a6a001a4a8453098d0ee8874, type: 3}
  IconScale: {x: 0.45, y: 0.45, z: 1}
  BuyPrice: 60
  SellPrice: 45
