%YAML 1.1
%TAG !u! tag:unity3d.com,2011:
--- !u!114 &11400000
MonoBehaviour:
  m_ObjectHideFlags: 0
  m_CorrespondingSourceObject: {fileID: 0}
  m_PrefabInstance: {fileID: 0}
  m_PrefabAsset: {fileID: 0}
  m_GameObject: {fileID: 0}
  m_Enabled: 1
  m_EditorHideFlags: 0
  m_Script: {fileID: 11500000, guid: 58e8f05c0d2aacf4eb41992cb0543406, type: 3}
  m_Name: TutorialRightWave
  m_EditorClassIdentifier: 
  Waves:
  - Delay: 0
    InfinityDelay: 0
    Description: Ogro Chefe (x2)
    Enemy:
    - Prefab: {fileID: 7256746154632027962, guid: 6825613de37ff1949b2eb1f1c6951cf8,
        type: 3}
      Quantity: 2
      Delay: 3
