%YAML 1.1
%TAG !u! tag:unity3d.com,2011:
--- !u!74 &7400000
AnimationClip:
  m_ObjectHideFlags: 0
  m_CorrespondingSourceObject: {fileID: 0}
  m_PrefabInstance: {fileID: 0}
  m_PrefabAsset: {fileID: 0}
  m_Name: Walk
  serializedVersion: 6
  m_Legacy: 0
  m_Compressed: 0
  m_UseHighQualityCurve: 1
  m_RotationCurves: []
  m_CompressedRotationCurves: []
  m_EulerCurves: []
  m_PositionCurves: []
  m_ScaleCurves: []
  m_FloatCurves: []
  m_PPtrCurves:
  - curve:
    - time: 0
      value: {fileID: 21300000, guid: d5cca260093d94540b88797192f76031, type: 3}
    - time: 0.05
      value: {fileID: 21300000, guid: 505ac5e55ad00334b9dd287626610c41, type: 3}
    - time: 0.1
      value: {fileID: 21300000, guid: 9c1d6432831042b48b47a633fc8b2dd8, type: 3}
    - time: 0.15
      value: {fileID: 21300000, guid: f530430eabb520845918c5571add17a1, type: 3}
    - time: 0.21666667
      value: {fileID: 21300000, guid: cf6c154939277754d97af53aba269948, type: 3}
    - time: 0.26666668
      value: {fileID: 21300000, guid: 67442fc525106904897f5f9a6833f392, type: 3}
    - time: 0.31666666
      value: {fileID: 21300000, guid: 49a99135407995d4d83c82f67438f9cd, type: 3}
    - time: 0.36666667
      value: {fileID: 21300000, guid: 9c70ed3f0efb9fd44b990afeb4f49d6b, type: 3}
    - time: 0.41666666
      value: {fileID: 21300000, guid: eaa5b9a5359823d438f2a2bca1ff31e5, type: 3}
    - time: 0.46666667
      value: {fileID: 21300000, guid: 56c149a74296e1f4e9dd78763310c583, type: 3}
    - time: 0.53333336
      value: {fileID: 21300000, guid: b481fd3d627b66c4386329a731068d37, type: 3}
    - time: 0.5833333
      value: {fileID: 21300000, guid: 632c5e1aeca82db40b137aa91183a0e7, type: 3}
    - time: 0.6333333
      value: {fileID: 21300000, guid: a88a53a21cbec5849aa34ee8164ac3f6, type: 3}
    - time: 0.68333334
      value: {fileID: 21300000, guid: dab9191989193ff4f97a4174a67c0a51, type: 3}
    - time: 0.73333335
      value: {fileID: 21300000, guid: 58a8fc3afd564364683bc03e1b25b156, type: 3}
    - time: 0.78333336
      value: {fileID: 21300000, guid: 370bde4e4764e1b44a588241ed3aa999, type: 3}
    - time: 0.85
      value: {fileID: 21300000, guid: 9c5246d6acfc89b4d88685bcf2a8e4f4, type: 3}
    - time: 0.9
      value: {fileID: 21300000, guid: c9c5c5a93b3146f46a319769a1c3b4ae, type: 3}
    - time: 0.95
      value: {fileID: 21300000, guid: 320791ccc39ef2747910da8251e8d3ae, type: 3}
    - time: 1
      value: {fileID: 21300000, guid: 5ceacb400d5b64a4b83d6fa5bf574b54, type: 3}
    attribute: m_Sprite
    path: 
    classID: 212
    script: {fileID: 0}
  m_SampleRate: 60
  m_WrapMode: 0
  m_Bounds:
    m_Center: {x: 0, y: 0, z: 0}
    m_Extent: {x: 0, y: 0, z: 0}
  m_ClipBindingConstant:
    genericBindings:
    - serializedVersion: 2
      path: 0
      attribute: 0
      script: {fileID: 0}
      typeID: 212
      customType: 23
      isPPtrCurve: 1
    pptrCurveMapping:
    - {fileID: 21300000, guid: d5cca260093d94540b88797192f76031, type: 3}
    - {fileID: 21300000, guid: 505ac5e55ad00334b9dd287626610c41, type: 3}
    - {fileID: 21300000, guid: 9c1d6432831042b48b47a633fc8b2dd8, type: 3}
    - {fileID: 21300000, guid: f530430eabb520845918c5571add17a1, type: 3}
    - {fileID: 21300000, guid: cf6c154939277754d97af53aba269948, type: 3}
    - {fileID: 21300000, guid: 67442fc525106904897f5f9a6833f392, type: 3}
    - {fileID: 21300000, guid: 49a99135407995d4d83c82f67438f9cd, type: 3}
    - {fileID: 21300000, guid: 9c70ed3f0efb9fd44b990afeb4f49d6b, type: 3}
    - {fileID: 21300000, guid: eaa5b9a5359823d438f2a2bca1ff31e5, type: 3}
    - {fileID: 21300000, guid: 56c149a74296e1f4e9dd78763310c583, type: 3}
    - {fileID: 21300000, guid: b481fd3d627b66c4386329a731068d37, type: 3}
    - {fileID: 21300000, guid: 632c5e1aeca82db40b137aa91183a0e7, type: 3}
    - {fileID: 21300000, guid: a88a53a21cbec5849aa34ee8164ac3f6, type: 3}
    - {fileID: 21300000, guid: dab9191989193ff4f97a4174a67c0a51, type: 3}
    - {fileID: 21300000, guid: 58a8fc3afd564364683bc03e1b25b156, type: 3}
    - {fileID: 21300000, guid: 370bde4e4764e1b44a588241ed3aa999, type: 3}
    - {fileID: 21300000, guid: 9c5246d6acfc89b4d88685bcf2a8e4f4, type: 3}
    - {fileID: 21300000, guid: c9c5c5a93b3146f46a319769a1c3b4ae, type: 3}
    - {fileID: 21300000, guid: 320791ccc39ef2747910da8251e8d3ae, type: 3}
    - {fileID: 21300000, guid: 5ceacb400d5b64a4b83d6fa5bf574b54, type: 3}
  m_AnimationClipSettings:
    serializedVersion: 2
    m_AdditiveReferencePoseClip: {fileID: 0}
    m_AdditiveReferencePoseTime: 0
    m_StartTime: 0
    m_StopTime: 1.0166667
    m_OrientationOffsetY: 0
    m_Level: 0
    m_CycleOffset: 0
    m_HasAdditiveReferencePose: 0
    m_LoopTime: 1
    m_LoopBlend: 0
    m_LoopBlendOrientation: 0
    m_LoopBlendPositionY: 0
    m_LoopBlendPositionXZ: 0
    m_KeepOriginalOrientation: 0
    m_KeepOriginalPositionY: 1
    m_KeepOriginalPositionXZ: 0
    m_HeightFromFeet: 0
    m_Mirror: 0
  m_EditorCurves: []
  m_EulerEditorCurves: []
  m_HasGenericRootTransform: 0
  m_HasMotionFloatCurves: 0
  m_Events: []
