%YAML 1.1
%TAG !u! tag:unity3d.com,2011:
--- !u!74 &7400000
AnimationClip:
  m_ObjectHideFlags: 0
  m_CorrespondingSourceObject: {fileID: 0}
  m_PrefabInstance: {fileID: 0}
  m_PrefabAsset: {fileID: 0}
  m_Name: Attack
  serializedVersion: 6
  m_Legacy: 0
  m_Compressed: 0
  m_UseHighQualityCurve: 1
  m_RotationCurves: []
  m_CompressedRotationCurves: []
  m_EulerCurves: []
  m_PositionCurves: []
  m_ScaleCurves: []
  m_FloatCurves: []
  m_PPtrCurves:
  - curve:
    - time: 0
      value: {fileID: 21300000, guid: 68a60c6f2d3c5a0498841ca9bbc3b923, type: 3}
    - time: 0.083333336
      value: {fileID: 21300000, guid: c0d407c9025c0ee459c9d2e1f651b778, type: 3}
    - time: 0.16666667
      value: {fileID: 21300000, guid: 8e30868b4a959e449b4f1ae38f84e10b, type: 3}
    - time: 0.25
      value: {fileID: 21300000, guid: b1c135cd6e3355c44b60b658075e4fce, type: 3}
    - time: 0.35
      value: {fileID: 21300000, guid: d418a36617e5a22478f14c0ad45d9f1a, type: 3}
    - time: 0.41666666
      value: {fileID: 21300000, guid: 2a5c23607d4a3b2439e7a4002812747e, type: 3}
    - time: 0.5
      value: {fileID: 21300000, guid: 58691e47bf556f44dad5dfb1514a3c08, type: 3}
    - time: 0.5833333
      value: {fileID: 21300000, guid: f9756f6bbcfe83346818e86a88b88385, type: 3}
    - time: 0.6666667
      value: {fileID: 21300000, guid: a0bc987d6553f344cb45f23a69154b0d, type: 3}
    - time: 0.75
      value: {fileID: 21300000, guid: cad9986cea92a7d408466794b51edd77, type: 3}
    attribute: m_Sprite
    path: 
    classID: 212
    script: {fileID: 0}
  m_SampleRate: 60
  m_WrapMode: 0
  m_Bounds:
    m_Center: {x: 0, y: 0, z: 0}
    m_Extent: {x: 0, y: 0, z: 0}
  m_ClipBindingConstant:
    genericBindings:
    - serializedVersion: 2
      path: 0
      attribute: 0
      script: {fileID: 0}
      typeID: 212
      customType: 23
      isPPtrCurve: 1
    pptrCurveMapping:
    - {fileID: 21300000, guid: 68a60c6f2d3c5a0498841ca9bbc3b923, type: 3}
    - {fileID: 21300000, guid: c0d407c9025c0ee459c9d2e1f651b778, type: 3}
    - {fileID: 21300000, guid: 8e30868b4a959e449b4f1ae38f84e10b, type: 3}
    - {fileID: 21300000, guid: b1c135cd6e3355c44b60b658075e4fce, type: 3}
    - {fileID: 21300000, guid: d418a36617e5a22478f14c0ad45d9f1a, type: 3}
    - {fileID: 21300000, guid: 2a5c23607d4a3b2439e7a4002812747e, type: 3}
    - {fileID: 21300000, guid: 58691e47bf556f44dad5dfb1514a3c08, type: 3}
    - {fileID: 21300000, guid: f9756f6bbcfe83346818e86a88b88385, type: 3}
    - {fileID: 21300000, guid: a0bc987d6553f344cb45f23a69154b0d, type: 3}
    - {fileID: 21300000, guid: cad9986cea92a7d408466794b51edd77, type: 3}
  m_AnimationClipSettings:
    serializedVersion: 2
    m_AdditiveReferencePoseClip: {fileID: 0}
    m_AdditiveReferencePoseTime: 0
    m_StartTime: 0
    m_StopTime: 0.76666665
    m_OrientationOffsetY: 0
    m_Level: 0
    m_CycleOffset: 0
    m_HasAdditiveReferencePose: 0
    m_LoopTime: 1
    m_LoopBlend: 0
    m_LoopBlendOrientation: 0
    m_LoopBlendPositionY: 0
    m_LoopBlendPositionXZ: 0
    m_KeepOriginalOrientation: 0
    m_KeepOriginalPositionY: 1
    m_KeepOriginalPositionXZ: 0
    m_HeightFromFeet: 0
    m_Mirror: 0
  m_EditorCurves: []
  m_EulerEditorCurves: []
  m_HasGenericRootTransform: 0
  m_HasMotionFloatCurves: 0
  m_Events:
  - time: 0.41666666
    functionName: OnAttackEnded
    data: 
    objectReferenceParameter: {fileID: 0}
    floatParameter: 0
    intParameter: 0
    messageOptions: 0
