%YAML 1.1
%TAG !u! tag:unity3d.com,2011:
--- !u!74 &7400000
AnimationClip:
  m_ObjectHideFlags: 0
  m_CorrespondingSourceObject: {fileID: 0}
  m_PrefabInstance: {fileID: 0}
  m_PrefabAsset: {fileID: 0}
  m_Name: Freeze
  serializedVersion: 6
  m_Legacy: 0
  m_Compressed: 0
  m_UseHighQualityCurve: 1
  m_RotationCurves: []
  m_CompressedRotationCurves: []
  m_EulerCurves: []
  m_PositionCurves: []
  m_ScaleCurves: []
  m_FloatCurves: []
  m_PPtrCurves:
  - curve:
    - time: 0
      value: {fileID: 21300000, guid: 157f8bf7cccf77543bd4cdd28749be7b, type: 3}
    - time: 0.13333334
      value: {fileID: 21300000, guid: 687dcaf49772cb74995be4e9b1a719e7, type: 3}
    - time: 0.45
      value: {fileID: 21300000, guid: 9f2f2d34efcc8f84792a160ca60dff69, type: 3}
    - time: 0.76666665
      value: {fileID: 21300000, guid: 8590aec1d76e8e341b4146a95aa54456, type: 3}
    - time: 1.0833334
      value: {fileID: 21300000, guid: 223dca0831af9cf4d9a1e71f02bc8587, type: 3}
    - time: 1.4
      value: {fileID: 21300000, guid: 0c8f4db9f3d0ad94f9dee5073df0ea5f, type: 3}
    - time: 2.6333334
      value: {fileID: 21300000, guid: 0c8f4db9f3d0ad94f9dee5073df0ea5f, type: 3}
    attribute: m_Sprite
    path: 
    classID: 212
    script: {fileID: 0}
  m_SampleRate: 60
  m_WrapMode: 0
  m_Bounds:
    m_Center: {x: 0, y: 0, z: 0}
    m_Extent: {x: 0, y: 0, z: 0}
  m_ClipBindingConstant:
    genericBindings:
    - serializedVersion: 2
      path: 0
      attribute: 0
      script: {fileID: 0}
      typeID: 212
      customType: 23
      isPPtrCurve: 1
    pptrCurveMapping:
    - {fileID: 21300000, guid: 157f8bf7cccf77543bd4cdd28749be7b, type: 3}
    - {fileID: 21300000, guid: 687dcaf49772cb74995be4e9b1a719e7, type: 3}
    - {fileID: 21300000, guid: 9f2f2d34efcc8f84792a160ca60dff69, type: 3}
    - {fileID: 21300000, guid: 8590aec1d76e8e341b4146a95aa54456, type: 3}
    - {fileID: 21300000, guid: 223dca0831af9cf4d9a1e71f02bc8587, type: 3}
    - {fileID: 21300000, guid: 0c8f4db9f3d0ad94f9dee5073df0ea5f, type: 3}
    - {fileID: 21300000, guid: 0c8f4db9f3d0ad94f9dee5073df0ea5f, type: 3}
  m_AnimationClipSettings:
    serializedVersion: 2
    m_AdditiveReferencePoseClip: {fileID: 0}
    m_AdditiveReferencePoseTime: 0
    m_StartTime: 0
    m_StopTime: 2.65
    m_OrientationOffsetY: 0
    m_Level: 0
    m_CycleOffset: 0
    m_HasAdditiveReferencePose: 0
    m_LoopTime: 1
    m_LoopBlend: 0
    m_LoopBlendOrientation: 0
    m_LoopBlendPositionY: 0
    m_LoopBlendPositionXZ: 0
    m_KeepOriginalOrientation: 0
    m_KeepOriginalPositionY: 1
    m_KeepOriginalPositionXZ: 0
    m_HeightFromFeet: 0
    m_Mirror: 0
  m_EditorCurves: []
  m_EulerEditorCurves: []
  m_HasGenericRootTransform: 0
  m_HasMotionFloatCurves: 0
  m_Events:
  - time: 2.65
    functionName: OnAnimationEnded
    data: 
    objectReferenceParameter: {fileID: 0}
    floatParameter: 0
    intParameter: 0
    messageOptions: 0
