%YAML 1.1
%TAG !u! tag:unity3d.com,2011:
--- !u!74 &7400000
AnimationClip:
  m_ObjectHideFlags: 0
  m_CorrespondingSourceObject: {fileID: 0}
  m_PrefabInstance: {fileID: 0}
  m_PrefabAsset: {fileID: 0}
  m_Name: Rocks
  serializedVersion: 6
  m_Legacy: 0
  m_Compressed: 0
  m_UseHighQualityCurve: 1
  m_RotationCurves: []
  m_CompressedRotationCurves: []
  m_EulerCurves: []
  m_PositionCurves: []
  m_ScaleCurves: []
  m_FloatCurves: []
  m_PPtrCurves:
  - curve:
    - time: 0
      value: {fileID: 21300000, guid: a6ec02e3c6f822b4f9e9fd0f01f83e00, type: 3}
    - time: 0.06666667
      value: {fileID: 21300000, guid: 744ee61d4e427af4c9eb6a11ed361638, type: 3}
    - time: 0.13333334
      value: {fileID: 21300000, guid: b91481b137118bc409e8c469cee84ec7, type: 3}
    - time: 0.16666667
      value: {fileID: 21300000, guid: c118910621134a847afa5698213ff830, type: 3}
    - time: 0.23333333
      value: {fileID: 21300000, guid: 6d4d8a5fc4dcfba4e9e75ee706c59243, type: 3}
    - time: 0.3
      value: {fileID: 21300000, guid: 482e47bf6dc6fa946ad1c99bb6bebaa0, type: 3}
    - time: 0.36666667
      value: {fileID: 21300000, guid: b4f50c5baf778a14c8ac5a5dd0b59f7d, type: 3}
    - time: 0.4
      value: {fileID: 21300000, guid: cd440a6c529a87a459ece51af49e1d57, type: 3}
    - time: 0.46666667
      value: {fileID: 21300000, guid: f9f5ad3df626181489af5e61e1a7929f, type: 3}
    - time: 0.51666665
      value: {fileID: 21300000, guid: 0c3e53afcb331274b97a3a783a2c43bd, type: 3}
    - time: 0.6
      value: {fileID: 21300000, guid: 9f02fabb90cdcd147a3ad5e40dc2cd5d, type: 3}
    - time: 0.6333333
      value: {fileID: 21300000, guid: bfed6c9fd0da0f2479e74f3820ad0b9e, type: 3}
    - time: 0.7
      value: {fileID: 21300000, guid: 1501570a6f2b69e43b5a02d5dc8d8b73, type: 3}
    - time: 0.76666665
      value: {fileID: 21300000, guid: d0a3590e77b718142acd9bd31187c159, type: 3}
    - time: 0.8333333
      value: {fileID: 21300000, guid: ab29e60f2269657448e0c31a33d16184, type: 3}
    - time: 0.8666667
      value: {fileID: 21300000, guid: e6320cdf57e5b2047a44865abccd28f7, type: 3}
    - time: 0.93333334
      value: {fileID: 21300000, guid: 9b5ac745c26afa541a54bf1233f21540, type: 3}
    - time: 1
      value: {fileID: 21300000, guid: b7835c9a22c75434eb57bb16eb73e438, type: 3}
    attribute: m_Sprite
    path: 
    classID: 212
    script: {fileID: 0}
  m_SampleRate: 60
  m_WrapMode: 0
  m_Bounds:
    m_Center: {x: 0, y: 0, z: 0}
    m_Extent: {x: 0, y: 0, z: 0}
  m_ClipBindingConstant:
    genericBindings:
    - serializedVersion: 2
      path: 0
      attribute: 0
      script: {fileID: 0}
      typeID: 212
      customType: 23
      isPPtrCurve: 1
    pptrCurveMapping:
    - {fileID: 21300000, guid: a6ec02e3c6f822b4f9e9fd0f01f83e00, type: 3}
    - {fileID: 21300000, guid: 744ee61d4e427af4c9eb6a11ed361638, type: 3}
    - {fileID: 21300000, guid: b91481b137118bc409e8c469cee84ec7, type: 3}
    - {fileID: 21300000, guid: c118910621134a847afa5698213ff830, type: 3}
    - {fileID: 21300000, guid: 6d4d8a5fc4dcfba4e9e75ee706c59243, type: 3}
    - {fileID: 21300000, guid: 482e47bf6dc6fa946ad1c99bb6bebaa0, type: 3}
    - {fileID: 21300000, guid: b4f50c5baf778a14c8ac5a5dd0b59f7d, type: 3}
    - {fileID: 21300000, guid: cd440a6c529a87a459ece51af49e1d57, type: 3}
    - {fileID: 21300000, guid: f9f5ad3df626181489af5e61e1a7929f, type: 3}
    - {fileID: 21300000, guid: 0c3e53afcb331274b97a3a783a2c43bd, type: 3}
    - {fileID: 21300000, guid: 9f02fabb90cdcd147a3ad5e40dc2cd5d, type: 3}
    - {fileID: 21300000, guid: bfed6c9fd0da0f2479e74f3820ad0b9e, type: 3}
    - {fileID: 21300000, guid: 1501570a6f2b69e43b5a02d5dc8d8b73, type: 3}
    - {fileID: 21300000, guid: d0a3590e77b718142acd9bd31187c159, type: 3}
    - {fileID: 21300000, guid: ab29e60f2269657448e0c31a33d16184, type: 3}
    - {fileID: 21300000, guid: e6320cdf57e5b2047a44865abccd28f7, type: 3}
    - {fileID: 21300000, guid: 9b5ac745c26afa541a54bf1233f21540, type: 3}
    - {fileID: 21300000, guid: b7835c9a22c75434eb57bb16eb73e438, type: 3}
  m_AnimationClipSettings:
    serializedVersion: 2
    m_AdditiveReferencePoseClip: {fileID: 0}
    m_AdditiveReferencePoseTime: 0
    m_StartTime: 0
    m_StopTime: 1.0166667
    m_OrientationOffsetY: 0
    m_Level: 0
    m_CycleOffset: 0
    m_HasAdditiveReferencePose: 0
    m_LoopTime: 1
    m_LoopBlend: 0
    m_LoopBlendOrientation: 0
    m_LoopBlendPositionY: 0
    m_LoopBlendPositionXZ: 0
    m_KeepOriginalOrientation: 0
    m_KeepOriginalPositionY: 1
    m_KeepOriginalPositionXZ: 0
    m_HeightFromFeet: 0
    m_Mirror: 0
  m_EditorCurves: []
  m_EulerEditorCurves: []
  m_HasGenericRootTransform: 0
  m_HasMotionFloatCurves: 0
  m_Events:
  - time: 0.75
    functionName: OnAttackEnded
    data: 
    objectReferenceParameter: {fileID: 0}
    floatParameter: 0
    intParameter: 0
    messageOptions: 0
  - time: 1
    functionName: OnAnimationEnded
    data: 
    objectReferenceParameter: {fileID: 0}
    floatParameter: 0
    intParameter: 0
    messageOptions: 0
