%YAML 1.1
%TAG !u! tag:unity3d.com,2011:
--- !u!74 &7400000
AnimationClip:
  m_ObjectHideFlags: 0
  m_CorrespondingSourceObject: {fileID: 0}
  m_PrefabInstance: {fileID: 0}
  m_PrefabAsset: {fileID: 0}
  m_Name: Attack
  serializedVersion: 6
  m_Legacy: 0
  m_Compressed: 0
  m_UseHighQualityCurve: 1
  m_RotationCurves: []
  m_CompressedRotationCurves: []
  m_EulerCurves: []
  m_PositionCurves: []
  m_ScaleCurves: []
  m_FloatCurves: []
  m_PPtrCurves:
  - curve:
    - time: 0
      value: {fileID: 21300000, guid: 232b04c4cc2f19349a8f366fef85b685, type: 3}
    - time: 0.06666667
      value: {fileID: 21300000, guid: 34b91c488a7842444953ba7d60b42d84, type: 3}
    - time: 0.16666667
      value: {fileID: 21300000, guid: 17fc8e57e68a7e24fb72d122af55c16d, type: 3}
    - time: 0.25
      value: {fileID: 21300000, guid: 1d4ca891543b7404693d546f660d269c, type: 3}
    - time: 0.41666666
      value: {fileID: 21300000, guid: ae10d874f19b63e41a97b781f7be74fb, type: 3}
    - time: 0.5
      value: {fileID: 21300000, guid: c38ec85f9e50b8844abd1af4c24bab78, type: 3}
    - time: 0.5833333
      value: {fileID: 21300000, guid: 43d5ec4819bfb5c40bd3ad356fb7a1fd, type: 3}
    - time: 0.6666667
      value: {fileID: 21300000, guid: 99ef6f2f56024fa40b148e42ae1529e4, type: 3}
    - time: 0.75
      value: {fileID: 21300000, guid: aa0a9714da42f1346bdf86ca91256649, type: 3}
    - time: 0.8333333
      value: {fileID: 21300000, guid: 61a1964409ab3f142b185fed77cf6fd1, type: 3}
    attribute: m_Sprite
    path: 
    classID: 212
    script: {fileID: 0}
  m_SampleRate: 60
  m_WrapMode: 0
  m_Bounds:
    m_Center: {x: 0, y: 0, z: 0}
    m_Extent: {x: 0, y: 0, z: 0}
  m_ClipBindingConstant:
    genericBindings:
    - serializedVersion: 2
      path: 0
      attribute: 0
      script: {fileID: 0}
      typeID: 212
      customType: 23
      isPPtrCurve: 1
    pptrCurveMapping:
    - {fileID: 21300000, guid: 232b04c4cc2f19349a8f366fef85b685, type: 3}
    - {fileID: 21300000, guid: 34b91c488a7842444953ba7d60b42d84, type: 3}
    - {fileID: 21300000, guid: 17fc8e57e68a7e24fb72d122af55c16d, type: 3}
    - {fileID: 21300000, guid: 1d4ca891543b7404693d546f660d269c, type: 3}
    - {fileID: 21300000, guid: ae10d874f19b63e41a97b781f7be74fb, type: 3}
    - {fileID: 21300000, guid: c38ec85f9e50b8844abd1af4c24bab78, type: 3}
    - {fileID: 21300000, guid: 43d5ec4819bfb5c40bd3ad356fb7a1fd, type: 3}
    - {fileID: 21300000, guid: 99ef6f2f56024fa40b148e42ae1529e4, type: 3}
    - {fileID: 21300000, guid: aa0a9714da42f1346bdf86ca91256649, type: 3}
    - {fileID: 21300000, guid: 61a1964409ab3f142b185fed77cf6fd1, type: 3}
  m_AnimationClipSettings:
    serializedVersion: 2
    m_AdditiveReferencePoseClip: {fileID: 0}
    m_AdditiveReferencePoseTime: 0
    m_StartTime: 0
    m_StopTime: 0.84999996
    m_OrientationOffsetY: 0
    m_Level: 0
    m_CycleOffset: 0
    m_HasAdditiveReferencePose: 0
    m_LoopTime: 1
    m_LoopBlend: 0
    m_LoopBlendOrientation: 0
    m_LoopBlendPositionY: 0
    m_LoopBlendPositionXZ: 0
    m_KeepOriginalOrientation: 0
    m_KeepOriginalPositionY: 1
    m_KeepOriginalPositionXZ: 0
    m_HeightFromFeet: 0
    m_Mirror: 0
  m_EditorCurves: []
  m_EulerEditorCurves: []
  m_HasGenericRootTransform: 0
  m_HasMotionFloatCurves: 0
  m_Events:
  - time: 0.6666667
    functionName: OnAttackEnded
    data: 
    objectReferenceParameter: {fileID: 0}
    floatParameter: 0
    intParameter: 0
    messageOptions: 0
