%YAML 1.1
%TAG !u! tag:unity3d.com,2011:
--- !u!74 &7400000
AnimationClip:
  m_ObjectHideFlags: 0
  m_CorrespondingSourceObject: {fileID: 0}
  m_PrefabInstance: {fileID: 0}
  m_PrefabAsset: {fileID: 0}
  m_Name: Walk
  serializedVersion: 6
  m_Legacy: 0
  m_Compressed: 0
  m_UseHighQualityCurve: 1
  m_RotationCurves: []
  m_CompressedRotationCurves: []
  m_EulerCurves: []
  m_PositionCurves: []
  m_ScaleCurves: []
  m_FloatCurves: []
  m_PPtrCurves:
  - curve:
    - time: 0
      value: {fileID: 21300000, guid: fedcbc38eaa521d49b4e6f688d0806b9, type: 3}
    - time: 0.05
      value: {fileID: 21300000, guid: 5dffefde72a98c94aa6284d4858a5bf8, type: 3}
    - time: 0.1
      value: {fileID: 21300000, guid: bf3c9b67a6e62ae4d80dd7b7165a35c6, type: 3}
    - time: 0.16666667
      value: {fileID: 21300000, guid: aeeee95f9639bfe4d8835435505705a1, type: 3}
    - time: 0.21666667
      value: {fileID: 21300000, guid: 5da0ea9240b0b3340854728ddf364f8f, type: 3}
    - time: 0.28333333
      value: {fileID: 21300000, guid: eaf2bd77dfe31c2488fde181991beb35, type: 3}
    - time: 0.33333334
      value: {fileID: 21300000, guid: 821b1f517c70fc54ca2fcbcb64a4a9f2, type: 3}
    - time: 0.4
      value: {fileID: 21300000, guid: 3281f5b96af42284ba35ba1e398ec487, type: 3}
    - time: 0.45
      value: {fileID: 21300000, guid: bc7682caf82efb74281970555a323402, type: 3}
    - time: 0.5
      value: {fileID: 21300000, guid: a9e740727eb8dbc4f90e263864dd53fd, type: 3}
    attribute: m_Sprite
    path: 
    classID: 212
    script: {fileID: 0}
  m_SampleRate: 60
  m_WrapMode: 0
  m_Bounds:
    m_Center: {x: 0, y: 0, z: 0}
    m_Extent: {x: 0, y: 0, z: 0}
  m_ClipBindingConstant:
    genericBindings:
    - serializedVersion: 2
      path: 0
      attribute: 0
      script: {fileID: 0}
      typeID: 212
      customType: 23
      isPPtrCurve: 1
    pptrCurveMapping:
    - {fileID: 21300000, guid: fedcbc38eaa521d49b4e6f688d0806b9, type: 3}
    - {fileID: 21300000, guid: 5dffefde72a98c94aa6284d4858a5bf8, type: 3}
    - {fileID: 21300000, guid: bf3c9b67a6e62ae4d80dd7b7165a35c6, type: 3}
    - {fileID: 21300000, guid: aeeee95f9639bfe4d8835435505705a1, type: 3}
    - {fileID: 21300000, guid: 5da0ea9240b0b3340854728ddf364f8f, type: 3}
    - {fileID: 21300000, guid: eaf2bd77dfe31c2488fde181991beb35, type: 3}
    - {fileID: 21300000, guid: 821b1f517c70fc54ca2fcbcb64a4a9f2, type: 3}
    - {fileID: 21300000, guid: 3281f5b96af42284ba35ba1e398ec487, type: 3}
    - {fileID: 21300000, guid: bc7682caf82efb74281970555a323402, type: 3}
    - {fileID: 21300000, guid: a9e740727eb8dbc4f90e263864dd53fd, type: 3}
  m_AnimationClipSettings:
    serializedVersion: 2
    m_AdditiveReferencePoseClip: {fileID: 0}
    m_AdditiveReferencePoseTime: 0
    m_StartTime: 0
    m_StopTime: 0.51666665
    m_OrientationOffsetY: 0
    m_Level: 0
    m_CycleOffset: 0
    m_HasAdditiveReferencePose: 0
    m_LoopTime: 1
    m_LoopBlend: 0
    m_LoopBlendOrientation: 0
    m_LoopBlendPositionY: 0
    m_LoopBlendPositionXZ: 0
    m_KeepOriginalOrientation: 0
    m_KeepOriginalPositionY: 1
    m_KeepOriginalPositionXZ: 0
    m_HeightFromFeet: 0
    m_Mirror: 0
  m_EditorCurves: []
  m_EulerEditorCurves: []
  m_HasGenericRootTransform: 0
  m_HasMotionFloatCurves: 0
  m_Events: []
